[
  {
    "name": "gold-round",
    "inherit": "999-gold-round"
  },
  {
    "name": "999-gold-round",
    "composition": {
      "gold": "1",
      "slag": "0.001"
    },
    "unit": "ozt"
  },
  {
    "name": "9999-gold-round",
    "composition": {
      "gold": "1",
      "slag": "0.0001"
    }
  },
  {
    "name": "99999-gold-round",
    "composition": {
      "gold": "1",
      "slag": "0.00001"
    }
  },
  {
    "name": "gold-britannia",
    "inherit": "9999-gold-round"
  },
  {
    "name": "gold-queens-beasts",
    "inherit": "9999-gold-round"
  },
  {
    "name": "gold-maple",
    "inherit": "9999-gold-round"
  },
  {
    "names": ["gold-weiner", "gold-philaharmonic"],
    "inherit": "9999-gold-round"
  }
]
